…
    ## 
    ## Number of analysed responses:  762

    ## # A tibble: 7 x 2
    ##   category             n
    ##   <chr>            <int>
    ## 1 competitor         234
    ## 2 competitor/other    41
    ## 3 fullList            13
    ## 4 other              118
    ## 5 otherCategory        2
    ## 6 sameCategory       123
    ## 7 taciturn           231

    ## # A tibble: 36 x 2
    ##    itemName                                 n
    ##    <chr>                                <int>
    ##  1 bar-tea                                 17
    ##  2 bar-whiteWine                           21
    ##  3 bookingAgency-highClassAccommodation    18
    ##  4 bookingAgency-lowClassAccommodation     19
    ##  5 books-fantasy                           21
    ##  6 books-romance                           23
    ##  7 cafe-pie                                20
    ##  8 cafe-pizza                              15
    ##  9 clothing-beach                          22
    ## 10 clothing-winter                         22
    ## # … with 26 more rows
…
