…
We further exclude participants who provide the same responses on all
trials (i.e. responses within the range of 5 points, basically just
click trough the experiment).

    ## # A tibble: 40 x 6
    ## # Groups:   submission_id [1]
    ##    itemName        submission_id answerType   response centered_respon… bad_subj
    ##    <chr>                   <dbl> <chr>           <dbl>            <dbl> <lgl>   
    ##  1 petAdoption-do…          4476 competitor          0              -50 TRUE    
    ##  2 petAdoption-do…          4476 sameCategor…        0              -50 TRUE    
    ##  3 petAdoption-do…          4476 sameCategor…        0              -50 TRUE    
    ##  4 petAdoption-do…          4476 otherCatego…        0              -50 TRUE    
    ##  5 petAdoption-do…          4476 otherCatego…        0              -50 TRUE    
    ##  6 touristInfo-ch…          4476 competitor          3              -47 TRUE    
    ##  7 touristInfo-ch…          4476 sameCategor…        3              -47 TRUE    
    ##  8 touristInfo-ch…          4476 sameCategor…        3              -47 TRUE    
    ##  9 touristInfo-ch…          4476 otherCatego…        3              -47 TRUE    
    ## 10 touristInfo-ch…          4476 otherCatego…        3              -47 TRUE    
    ## # … with 30 more rows
    ## 
    ## number of subjects who provided the same responses within 5 points on all main trials: 1

``` r
cat("\nNumber of analysed vignette responses: ", nrow(df_clean_main))
```

    ## 
    ## Number of analysed vignette responses:  480

``` r
df_clean_main %>% count(itemName) 
```

    ## # A tibble: 36 x 2
    ##    itemName                                 n
    ##    <chr>                                <int>
    ##  1 bar-tea                                  7
    ##  2 bar-whiteWine                           16
    ##  3 bookingAgency-highClassAccommodation     9
    ##  4 bookingAgency-lowClassAccommodation     18
    ##  5 books-fantasy                           13
    ##  6 books-romance                           11
    ##  7 cafe-pie                                10
    ##  8 cafe-pizza                              14
    ##  9 clothing-beach                          16
    ## 10 clothing-winter                         10
    ## # … with 26 more rows
…
Below, the vignettes are sorted in terms of difference between mean
difference sizes. The items with smaller differences are taken to be
weaker items.

    ## # A tibble: 36 x 2
    ## # Groups:   itemName [36]
    ##    itemName                             response_range
    ##    <chr>                                         <dbl>
    ##  1 electronics-console                            8.44
    ##  2 plants-green                                  17.8 
    ##  3 plants-flowers                                17.8 
    ##  4 furniture-indoors                             21.1 
    ##  5 friendsActivities-videoEntertainment          21.7 
    ##  6 movie-fantasy                                 24.8 
    ##  7 waterSport-motor                              27.1 
    ##  8 cafe-pizza                                    29.7 
    ##  9 disney-princess                               30.0 
    ## 10 dutyFree-sweets                               30.6 
    ## # … with 26 more rows
…
