…
    ##  4 competitor    sameCategory           40.0
    ##  5 itemQuestion  competitor             62.4
    ##  6 itemQuestion  itemQuestion           95.5
    ##  7 itemQuestion  otherCategory          28.6
    ##  8 itemQuestion  sameCategory           45.8
    ##  9 otherCategory competitor             31.5
    ## 10 otherCategory itemQuestion           32.3
    ## 11 otherCategory otherCategory          92.8
    ## 12 otherCategory sameCategory           30.6
    ## 13 sameCategory  competitor             43.8
    ## 14 sameCategory  itemQuestion           47.4
    ## 15 sameCategory  otherCategory          24.3
    ## 16 sameCategory  sameCategory           92.5

    ## # A tibble: 64 × 4
    ## # Groups:   itemName, targetOption [16]
    ##    itemName targetOption  answerType    mean_response
    ##    <chr>    <chr>         <chr>                 <dbl>
    ##  1 cafe-pie competitor    competitor            98   
    ##  2 cafe-pie competitor    itemQuestion          78.7 
    ##  3 cafe-pie competitor    otherCategory          7.33
    ##  4 cafe-pie competitor    sameCategory          52.3 
    ##  5 cafe-pie itemQuestion  competitor            68.8 
    ##  6 cafe-pie itemQuestion  itemQuestion          92.8 
    ##  7 cafe-pie itemQuestion  otherCategory         19.8 
    ##  8 cafe-pie itemQuestion  sameCategory          44.8 
    ##  9 cafe-pie otherCategory competitor            13   
    ## 10 cafe-pie otherCategory itemQuestion          13   
    ## # … with 54 more rows
…
