…
    ## 
    ## Number of vignettes X rated requested options (expected 120):  120

    ## 
    ## Number of vignettes X rated requested options X rated received options (expected 480):  480

    ## 
    ## Average number of rating per measurements per vignette:  15.06667

Explore target ratings in order to check if there are any unexpected
results. It seems that for all vignettes the participants behaved as
expected (mean rating when requested target = received target is \> 90).

    ## # A tibble: 30 × 2
    ##    itemName                             mean_rating
    ##    <chr>                                      <dbl>
    ##  1 bookingAgency-lowClassAccommodation         91.4
    ##  2 kidsActivities-crafts                       93.8
    ##  3 touristInfo-clubbing                        93.8
    ##  4 kidsActivities-sports                       94.2
    ##  5 interior-green                              94.5
    ##  6 friendsActivities-videoEntertainment        94.7
    ##  7 cafe-pie                                    94.7
    ##  8 dutyFree-smokes                             94.8
    ##  9 bookingAgency-highClassAccommodation        94.8
    ## 10 interior-deco                               94.8
    ## # … with 20 more rows
…
