…
    ## 
    ## Number of analysed responses:  594

    ## # A tibble: 6 × 2
    ##   category          n
    ##   <chr>         <int>
    ## 1 competitor      272
    ## 2 fullList         52
    ## 3 other            68
    ## 4 otherCategory     2
    ## 5 sameCategory     94
    ## 6 taciturn        106

    ## # A tibble: 30 × 2
    ##    itemName                                 n
    ##    <chr>                                <int>
    ##  1 bar-tea                                 27
    ##  2 bar-whiteWine                           17
    ##  3 bookingAgency-highClassAccommodation    22
    ##  4 bookingAgency-lowClassAccommodation     14
    ##  5 books-fantasy                           23
    ##  6 books-romance                           20
    ##  7 cafe-pie                                14
    ##  8 cafe-pizza                              16
    ##  9 clothing-acc                            19
    ## 10 clothing-clothes                        18
    ## # … with 20 more rows
…
