…
    ## By model response category counts:

    ## # A tibble: 98 × 3
    ##    model_name                                            category          n
    ##    <chr>                                                 <chr>         <int>
    ##  1 aware-ai/bart-squadv2                                 competitor       25
    ##  2 aware-ai/bart-squadv2                                 fullList          3
    ##  3 aware-ai/bart-squadv2                                 none             29
    ##  4 aware-ai/bart-squadv2                                 other            91
    ##  5 aware-ai/bart-squadv2                                 sameCategory      2
    ##  6 bert-large-uncased-whole-word-masking-finetuned-squad competitor       66
    ##  7 bert-large-uncased-whole-word-masking-finetuned-squad fullList         47
    ##  8 bert-large-uncased-whole-word-masking-finetuned-squad other            26
    ##  9 bert-large-uncased-whole-word-masking-finetuned-squad otherCategory     2
    ## 10 bert-large-uncased-whole-word-masking-finetuned-squad sameCategory      9
    ## # … with 88 more rows

    ## By dataset response category proportions:

    ## `summarise()` has grouped output by 'dataset'. You can override using the
    ## `.groups` argument.

    ## # A tibble: 51 × 4
    ## # Groups:   dataset [8]
    ##    dataset                                                   categ…¹     n  prop
    ##    <chr>                                                     <chr>   <int> <dbl>
    ##  1 eli5                                                      yes       233 0.777
    ##  2 CC, WebText, Books, Wikipedia, human data                 fullLi…    40 0.667
    ##  3 DuoRC                                                     yes       131 0.437
    ##  4 SQuADv1                                                   fullLi…   311 0.415
    ##  5 WebText                                                   yes       124 0.413
    ##  6 MC QA, EQA, CBQA, D2T, sentiment, summary, topic, paraph… tacitu…    57 0.38 
    ##  7 SQuADv2                                                   other     447 0.372
    ##  8 unknown                                                   fullLi…    98 0.327
    ##  9 SQuADv1                                                   other     207 0.276
    ## 10 unknown                                                   compet…    77 0.257
    ## # … with 41 more rows, and abbreviated variable name ¹​category
…
    ## `summarise()` has grouped output by 'model_name', 'is_few_shot'. You can
    ## override using the `.groups` argument.

    ## Proportion of response categories by model:

    ## # A tibble: 128 × 5
    ## # Groups:   model_name, is_few_shot [24]
    ##    model_name                                       is_fe…¹ categ…²     n   prop
    ##    <chr>                                            <lgl>   <chr>   <int>  <dbl>
    ##  1 aware-ai/bart-squadv2                            FALSE   compet…    25 0.167 
    ##  2 aware-ai/bart-squadv2                            FALSE   fullLi…     3 0.02  
    ##  3 aware-ai/bart-squadv2                            FALSE   none       29 0.193 
    ##  4 aware-ai/bart-squadv2                            FALSE   other      91 0.607 
    ##  5 aware-ai/bart-squadv2                            FALSE   sameCa…     2 0.0133
    ##  6 bert-large-uncased-whole-word-masking-finetuned… FALSE   compet…    66 0.44  
    ##  7 bert-large-uncased-whole-word-masking-finetuned… FALSE   fullLi…    47 0.313 
    ##  8 bert-large-uncased-whole-word-masking-finetuned… FALSE   other      26 0.173 
    ##  9 bert-large-uncased-whole-word-masking-finetuned… FALSE   otherC…     2 0.0133
    ## 10 bert-large-uncased-whole-word-masking-finetuned… FALSE   sameCa…     9 0.06  
    ## # … with 118 more rows, and abbreviated variable names ¹​is_few_shot, ²​category
…
    ## `summarise()` has grouped output by 'model_name', 'is_few_shot'. You can
    ## override using the `.groups` argument.
    ## `summarise()` has grouped output by 'model_name'. You can override using the
    ## `.groups` argument.
    ## `summarise()` has grouped output by 'model_type'. You can override using the
    ## `.groups` argument.
    ## `summarise()` has grouped output by 'model_name', 'is_few_shot', 'itemName'.
    ## You can override using the `.groups` argument.
    ## `summarise()` has grouped output by 'itemName'. You can override using the
    ## `.groups` argument.

    ## Proportion of response categories by vignette:

    ## # A tibble: 161 × 5
    ## # Groups:   itemName [30]
    ##    itemName      category          n   prop answerType   
    ##    <chr>         <chr>         <int>  <dbl> <fct>        
    ##  1 bar-tea       competitor       12 0.138  competitor   
    ##  2 bar-tea       fullList         40 0.460  fullList     
    ##  3 bar-tea       other            30 0.345  other        
    ##  4 bar-tea       sameCategory      4 0.0460 sameCategory 
    ##  5 bar-tea       taciturn          1 0.0115 taciturn     
    ##  6 bar-whiteWine competitor       25 0.275  competitor   
    ##  7 bar-whiteWine fullList         29 0.319  fullList     
    ##  8 bar-whiteWine other            26 0.286  other        
    ##  9 bar-whiteWine otherCategory     1 0.0110 otherCategory
    ## 10 bar-whiteWine sameCategory      3 0.0330 sameCategory 
    ## # … with 151 more rows
…
