…
    ## 
    ## Number of analysed responses:  143

    ## # A tibble: 6 × 2
    ##   category          n
    ##   <fct>         <int>
    ## 1 competitor       47
    ## 2 mostSimilar      14
    ## 3 other            19
    ## 4 otherCategory     1
    ## 5 sameCategory     52
    ## 6 taciturn         10

    ## # A tibble: 25 × 2
    ##    itemName                   n
    ##    <chr>                  <int>
    ##  1 blanket-sleepover          9
    ##  2 blanket-transportation     3
    ##  3 bottle-plants              7
    ##  4 bottle-water               5
    ##  5 box-bbq                    6
    ##  6 box-muffins                5
    ##  7 broom-renovation           8
    ##  8 broom-snow                 6
    ##  9 candy-dessert              7
    ## 10 chair-party                2
    ## # … with 15 more rows
…
