…
``` r
d_main_clean <- d_main %>%
  filter(category != "no") %>%
  filter(category != "other") %>%
  filter(category != "yes") %>%
  mutate(
    category = str_split(category, ", ", simplify = FALSE) 
  ) %>%
  unnest(category)
  
d_main_clean
```

    ## # A tibble: 112 × 14
    ##    submiss…¹   age answer categ…² comme…³ condi…⁴ corre…⁵ educa…⁶ gender itemN…⁷
    ##        <dbl> <dbl> <chr>  <chr>   <chr>   <chr>   <chr>   <chr>   <chr>  <chr>  
    ##  1      3363    30 Yes w… tacitu… This w… low_pr… <NA>    Gradua… female videoG…
    ##  2      3363    30 Yes, … fullLi… This w… high_p… <NA>    Gradua… female coffee…
    ##  3      3363    30 Hi! W… except… This w… high_p… <NA>    Gradua… female cardBl…
    ##  4      3363    30 There… except… This w… low_pr… <NA>    Gradua… female phoneR…
    ##  5      3364    29 Yes, … fullLi… <NA>    low_pr… <NA>    Gradua… female parking
    ##  6      3364    29 Yes, … except… <NA>    low_pr… <NA>    Gradua… female parking
    ##  7      3364    29 Yes, … fullLi… <NA>    high_p… <NA>    Gradua… female carshr…
    ##  8      3364    29 You c… fullLi… <NA>    high_p… <NA>    Gradua… female foodCo…
    ##  9      3364    29 Yes w… fullLi… <NA>    low_pr… <NA>    Gradua… female airpla…
    ## 10      3365    24 You c… fullLi… <NA>    high_p… <NA>    Gradua… other  social…
    ## # … with 102 more rows, 4 more variables: languages <chr>, responseTime <dbl>,
    ## #   trialNr <dbl>, trial_type <chr>, and abbreviated variable names
    ## #   ¹​submission_id, ²​category, ³​comments, ⁴​condition, ⁵​correct_response,
    ## #   ⁶​education, ⁷​itemName
…
